% vim: sw=2:sts=2:ts=2
% $Id: ch1.mp,v 1.4 2023/04/18 09:55:08 cvr Exp $
%
% File: 'ml_ch1.mp'
% Time-stamp: <2023-04-17 10:40:47 cvr>
% 
% Copyright (c) 2022, Rachana Institute of Typography (RIT), 
% Trivandrum 695014, India
% email: <info@rachana.org.in>
% url: www.rachana.org.in
%
% This work may be distributed and/or modified under the
% conditions of the LaTeX Project Public License, either version 1.3
% of this license or (at your option) any later version.
% The latest version of this license is in
%   http://www.latex-project.org/lppl.txt
% and version 1.3 or later is part of all distributions of LaTeX
% version 2005/12/01 or later.
%
% This work has the LPPL maintenance status “maintained”.
% 
% The Current Maintainer of this work is RIT Team.
%
% $Header: /cvsroot/ml-font/ch1.mp,v 1.4 2023/04/18 09:55:08 cvr Exp $
% $Date: 2023/04/18 09:55:08 $
% $Revision: 1.4 $
%

input mpost-defs;
input ml-shape-lib;
input ml-glyphs-lib;
input option;
input out; 

%%% ച %%%

beginfig(20);
  gl_cha (CH);
endfig;

end;


$Log: ch1.mp,v $
Revision 1.4  2023/04/18 09:55:08  cvr
revised, added appropriate glyph function.

