% vim: sw=2:sts=2:ts=2
% $Id: ch1ch1u2.mp,v 1.1 2023/04/18 09:59:12 cvr Exp $
%
% File: 'ch1ch1u2.mp'
% Copyright (c) 2022, Rachana Institute of Typography (RIT), 
% Trivandrum 695014, India
% email: <info@rachana.org.in>
% url: www.rachana.org.in
%
% This work may be distributed and/or modified under the
% conditions of the LaTeX Project Public License, either version 1.3
% of this license or (at your option) any later version.
% The latest version of this license is in
%   http://www.latex-project.org/lppl.txt
% and version 1.3 or later is part of all distributions of LaTeX
% version 2005/12/01 or later.
%
% This work has the LPPL maintenance status “maintained”.
% 
% The Current Maintainer of this work is RIT Team.
%
% $Header: /cvsroot/ml-font/ch1ch1u2.mp,v 1.1 2023/04/18 09:59:12 cvr Exp $
% $Date: 2023/04/18 09:59:12 $
% $Revision: 1.1 $
%
% ച്ചൂ
%
input mpost-defs;
input ml-shape-lib;
input option;
input out; 

beginfig(20);
  coor_c_ch_lt (1) (0u,0u);
  pstroke_c_ch_lt (1);
  pstroke_stem (2)(0,0,3b,thin);
  pstroke_stem (3)(x2d,0,thick,1h);
%
  outln:=true;
  c_cons_dbl (4)(x3d,y3a,1.8b,.4h);
  no_reverse;
  make_stem_uu (21) (x4a.b-(x21c-x21b)-.5wd21c,y4a.b-.5wd21b);
endfig;

end;

$Log: ch1ch1u2.mp,v $
Revision 1.1  2023/04/18 09:59:12  cvr
initial commit.
0


  
