% vim: sw=2:sts=2:ts=2
% $Id: h1m1r1.mp,v 1.2 2023/04/30 08:26:52 cvr Exp $
%
% File: 'h1m1r1.mp'
% Time-stamp: <2023-04-30 08:26:35 rajeesh>
% 
% Copyright (c) 2022, 2023 Rachana Institute of Typography (RIT), 
% Trivandrum 695014, India
% email: <info@rachana.org.in>
% url: www.rachana.org.in
%
% This work may be distributed and/or modified under the
% conditions of the LaTeX Project Public License, either version 1.3
% of this license or (at your option) any later version.
% The latest version of this license is in
%   http://www.latex-project.org/lppl.txt
% and version 1.3 or later is part of all distributions of LaTeX
% version 2005/12/01 or later.
%
% This work has the LPPL maintenance status “maintained”.
% 
% The Current Maintainer of this work is RIT Team.
%
% $Header: /cvsroot/ml-font/h1m1r1.mp,v 1.2 2023/04/30 08:26:52 rajeesh Exp $
% $Date: 2023/04/30 08:26:52 $
% $Revision: 1.2 $
%
input mpost-defs;
input ml-shape-lib;
input option;
input out; 

getver(1.2);

%%% ഹ്മൃ  %%%

beginfig(36);
  gl_hma;
  coor_c_prkar (31) (x4f-(x31b-x31a),0);
  start:=1; wd31b=wd4f;
  pstroke_c_prkar (31);
  penstroke z31b.e .. z4f.e;
endfig;

end;

$Log: h1m1r1.mp,v $
Revision 1.2  2023/04/30 08:26:52  rajeesh
h1m1r1: initial version

