% vim: sw=2:sts=2:ts=2
% $Id: k1k1r1.mp,v 1.1 2023/02/25 03:29:46 cvr Exp $
%
% File: 'k1k1r1.mp'
% Time-stamp: <2023-02-25 09:00:01 cvr>
% 
% Copyright (c) 2022, Rachana Institute of Typography (RIT), 
% Trivandrum 695014, India
% email: <info@rachana.org.in>
% url: www.rachana.org.in
%
% This work may be distributed and/or modified under the
% conditions of the LaTeX Project Public License, either version 1.3
% of this license or (at your option) any later version.
% The latest version of this license is in
%   http://www.latex-project.org/lppl.txt
% and version 1.3 or later is part of all distributions of LaTeX
% version 2005/12/01 or later.
%
% This work has the LPPL maintenance status “maintained”.
% 
% The Current Maintainer of this work is RIT Team.
%
% $Header: /cvsroot/ml-font/k1k1r1.mp,v 1.1 2023/02/25 03:29:46 cvr Exp $
% $Date: 2023/02/25 03:29:46 $
% $Revision: 1.1 $
%
% ക്കൃ
% 
%
input mpost-defs;
input ml-shape-lib;
input option;
input out; 

getver(1.1);

beginfig(15);
  gl_kkR;
endfig;

end;
