% vim: sw=2:sts=2:ts=2
% $Id: k1nhu2.mp,v 1.2 2023/05/02 12:23:58 cvr Exp $
%
% File: 'k1nhu2.mp'
% Time-stamp: <2023-05-02 17:52:54 cvr>
%
% Copyright (c) 2022, 2023, Rachana Institute of Typography (RIT), 
% Trivandrum 695014, India
% email: <info@rachana.org.in>
% url: www.rachana.org.in
%
% This work may be distributed and/or modified under the
% conditions of the LaTeX Project Public License, either version 1.3
% of this license or (at your option) any later version.
% The latest version of this license is in
%   http://www.latex-project.org/lppl.txt
% and version 1.3 or later is part of all distributions of LaTeX
% version 2005/12/01 or later.
%
% This work has the LPPL maintenance status “maintained”.
% 
% The Current Maintainer of this work is RIT Team.
%
% $Header: /cvsroot/ml-font/k1nhu2.mp,v 1.2 2023/05/02 12:23:58 cvr Exp $
% $Date: 2023/05/02 12:23:58 $
% $Revision: 1.2 $
%

input mpost-defs;
input ml-shape-lib;
input ml-glyphs-lib;
input option;
input out; 


%%% ക്ണൂ  %%%

beginfig(00);
  g1:=image(gl_ka); get_coors(g1)(1);
  vconj:=true; width_angle(wa_n);
  g2:=image(gl_Nuu(N)); get_coors(g2,2);
  g3:=g2 xscaled .6 yscaled .6; get_coors(g3,3);
  hsh := .5(wdth1-wdth3);
  currentpicture:=g1;
  show (wdth1,wdth3,hsh);
  show (llx1,llx3,hsh);
  addto currentpicture also g3
    shifted (xpart(lrcorner g1)-xpart(lrcorner g3),-(12u+20));
endfig;

end;

$Log: k1nhu2.mp,v $
Revision 1.2  2023/05/02 12:23:58  cvr
k1nhu2: missing argument added to the glyph function, gl_Nuu; errrors in shift transformation corrected.

Revision 1.1  2023/04/06 11:09:51  cvr
initial commit.

