% vim: sw=2:sts=2:ts=2
% $Id: k1r3u2.mp,v 1.3 2023/04/02 07:38:30 cvr Exp $
%
% File: 'k1r3u2.mp'
% Time-stamp: <2023-03-21 16:40:48 cvr>
%
% Copyright (c) 2022, 2023, Rachana Institute of Typography (RIT), 
% Trivandrum 695014, India
% email: <info@rachana.org.in>
% url: www.rachana.org.in
%
% This work may be distributed and/or modified under the
% conditions of the LaTeX Project Public License, either version 1.3
% of this license or (at your option) any later version.
% The latest version of this license is in
%   http://www.latex-project.org/lppl.txt
% and version 1.3 or later is part of all distributions of LaTeX
% version 2005/12/01 or later.
%
% This work has the LPPL maintenance status “maintained”.
% 
% The Current Maintainer of this work is RIT Team.
%
% $Header: /cvsroot/ml-font/k1r3u2.mp,v 1.3 2023/04/02 07:38:30 cvr Exp $
% $Date: 2023/04/02 07:38:30 $
% $Revision: 1.3 $
%

input mpost-defs;
input ml-shape-lib;
input option;
input out; 
input ml-vlsigns-lib;

%%% ക്രൂ %%%

input ml-glyphs-lib;

beginfig(00);
  gl_kruu;
endfig;  

end;

$Log: k1r3u2.mp,v $
Revision 1.3  2023/04/02 07:38:30  cvr
revised as per new repham function.

Revision 1.2  2023/03/18 11:41:55  cvr
k1r3u2: round uukar revised.

Revision 1.1  2023/03/13 02:40:14  cvr
k1r3u2: initial commit.

  
