% vim: sw=2:sts=2:ts=2
% $Id: k1sh.mp,v 1.3 2023/04/08 12:53:37 cvr Exp $
%
% File: 'k1sh.mp'
% Time-stamp: <2022-10-19 14:49:22 cvr>
% 
% Copyright (c) 2022, Rachana Institute of Typography (RIT), 
% Trivandrum 695014, India
% email: <info@rachana.org.in>
% url: www.rachana.org.in
%
% This work may be distributed and/or modified under the
% conditions of the LaTeX Project Public License, either version 1.3
% of this license or (at your option) any later version.
% The latest version of this license is in
%   http://www.latex-project.org/lppl.txt
% and version 1.3 or later is part of all distributions of LaTeX
% version 2005/12/01 or later.
%
% This work has the LPPL maintenance status “maintained”.
% 
% The Current Maintainer of this work is RIT Team.
%
% $Header: /cvsroot/ml-font/k1sh.mp,v 1.3 2023/04/08 12:53:37 cvr Exp $
% $Date: 2023/04/08 12:53:37 $
% $Revision: 1.3 $
%
input mpost-defs;
input ml-shape-lib;
input ml-glyphs-lib;
input option;
input out; 

getver(1.2);

%%% ക്ഷ %%%

beginfig(15);
%  coor_g_ka (1)(0,0);
%  stop:=6;   % cut at last but first coor
%  wd1m=.85thin; y1m:=0+.5wd1m;
%  pstroke_g_ka (1) ;
% 
%  if (wa=1): l_cor:=2.53b; elseif (wa=2): l_cor:=2.28b;
%    elseif  (wa=3): l_cor:=2.29b; elseif (wa=4): l_cor:=2.24b; fi
%  pstroke_stem (3) (x1m.r+60,0,l_cor,w_w);   % horizontal stem
%  pstroke_edge ((x1m.l,y3a),z1m.l,z3b,z3a);  % serif edge at hstem beginning
%  pstroke_stem (4) (x3d-thick,0,thick,.6h);  % vertical stem 1
%  pstroke_edge (z4b,((x4b+.35thick),.98h),(x4c,.98h),z4c);  % vertical stem 2
%  coor_c_sh_top (5) (x1l+if (wa=1):.4b else:.2b fi,0);
%  pstroke_c_sh_top (5);
  gl_ksha;
endfig;

end;

$Log: k1sh.mp,v $
Revision 1.3  2023/04/08 12:53:37  cvr
revised, added appropriate glyph function.

Revision 1.2  2023/03/05 03:48:32  cvr
k1sh: revised per new w/a scheme.

