% vim: sw=2:sts=2:ts=2
% $Id: k2u2.mp,v 1.2 2023/04/29 10:44:10 cvr Exp $
%
% File: 'k2u2.mp'
% Time-stamp: <2023-04-29 16:13:21 cvr>
% 
% Copyright (c) 2022, Rachana Institute of Typography (RIT), 
% Trivandrum 695014, India
% email: <info@rachana.org.in>
% url: www.rachana.org.in
%
% This work may be distributed and/or modified under the
% conditions of the LaTeX Project Public License, either version 1.3
% of this license or (at your option) any later version.
% The latest version of this license is in
%   http://www.latex-project.org/lppl.txt
% and version 1.3 or later is part of all distributions of LaTeX
% version 2005/12/01 or later.
%
% This work has the LPPL maintenance status “maintained”.
% 
% The Current Maintainer of this work is RIT Team.
%
% $Header $
% $Date: 2023/04/29 10:44:10 $
% $Revision: 1.2 $
%

input mpost-defs;
input ml-shape-lib;
input option;
input out; 

input ml-vlsigns-lib;

getver(1.5);

%%% ഖൂ %%%

beginfig(16);
%   coor_c_vs_e (1)(0,0);
%   if (wa=1) or (wa=3): wd1i:=.45w_s;  fi
%   if (wa=4): oc1i(.15); else: oc1i(.5); fi
%   ang1i:=-20; ang1a=110;
%   pstroke_c_vs_e (1) ;
%   stroke_stem (3) (x1i.r+0,0,1.5b,thin);
%   pstroke_stem (4) (x3c-thick,y3c,thick,1h);
%   pstroke_edge ((x1i.l,y3a),z1i.l,z3b,z3a);
% %  make_stem_u (21) (x4d-.5wd21c,y3c-.5wd21b);
%   make_stem_uu (21) (x4d-(x21c.r-x21b),y3c-.5wd21b);
  gl_khuu;

endfig;

end;

$Log: k2u2.mp,v $
Revision 1.2  2023/04/29 10:44:10  cvr
revised, added appropriate glyph function.

Revision 1.1  2023/04/06 11:08:18  cvr
initial commit.

