% vim: sw=2:sts=2:ts=2
% $Id: k3k3u2.mp,v 1.1 2023/04/10 10:46:02 cvr Exp $
%
% File: 'k3k3u2.mp'
% Time-stamp: <2023-04-09 17:53:50 cvr>
%
% Copyright (c) 2022, 2023, Rachana Institute of Typography (RIT), 
% Trivandrum 695014, India
% email: <info@rachana.org.in>
% url: www.rachana.org.in
%
% This work may be distributed and/or modified under the
% conditions of the LaTeX Project Public License, either version 1.3
% of this license or (at your option) any later version.
% The latest version of this license is in
%   http://www.latex-project.org/lppl.txt
% and version 1.3 or later is part of all distributions of LaTeX
% version 2005/12/01 or later.
%
% This work has the LPPL maintenance status “maintained”.
% 
% The Current Maintainer of this work is RIT Team.
%
% $Header: /cvsroot/ml-font/k3k3u2.mp,v 1.1 2023/04/10 10:46:02 cvr Exp $
% $Date: 2023/04/10 10:46:02 $
% $Revision: 1.1 $
%

input mpost-defs;
input ml-shape-lib;
input ml-glyphs-lib;
input option;
input out; 


%%% ഗ്ഗൂ  %%%

beginfig(00);
  g1:=image(gl_ga(G)); get_coors(g1)(1);
  g2:=image(gl_guu(GUU)); get_coors(g2,2);
  g3:=g2 xscaled .6 yscaled .6; get_coors(g3,3);
  currentpicture:=g1;
  show (wdth1,wdth3,hsh);
  show (llx1,llx3,hsh);
  addto currentpicture also g3
    shifted (x.G0.1h.l-(wdth3+15),-(12u+25));
endfig;

end;


$Log: k3k3u2.mp,v $
Revision 1.1  2023/04/10 10:46:02  cvr
initial commit.


