% vim: sw=2:sts=2:ts=2
% $Id: k4n1u2.mp,v 1.1 2023/04/12 08:02:02 cvr Exp $
%
% File: 'k4n1u2.mp'
% Time-stamp: <2023-04-12 10:55:03 cvr>
%
% Copyright (c) 2022, 2023, Rachana Institute of Typography (RIT), 
% Trivandrum 695014, India
% email: <info@rachana.org.in>
% url: www.rachana.org.in
%
% This work may be distributed and/or modified under the
% conditions of the LaTeX Project Public License, either version 1.3
% of this license or (at your option) any later version.
% The latest version of this license is in
%   http://www.latex-project.org/lppl.txt
% and version 1.3 or later is part of all distributions of LaTeX
% version 2005/12/01 or later.
%
% This work has the LPPL maintenance status “maintained”.
% 
% The Current Maintainer of this work is RIT Team.
%
% $Header: /cvsroot/ml-font/k4n1u2.mp,v 1.1 2023/04/12 08:02:02 cvr Exp $
% $Date: 2023/04/12 08:02:02 $
% $Revision: 1.1 $
%

input mpost-defs;
input ml-shape-lib;
input ml-glyphs-lib;
input option;
input out; 


%%% ഘ്നൂ  %%%

beginfig(00);
  g1:=image(gl_gha); get_coors(g1)(1);
  vconj:=true; width_angle(wa_n);
  g2:=image(gl_nuu); get_coors(g2,2);
  g3:=g2 xscaled .6 yscaled .6; get_coors(g3,3);
  currentpicture:=g1;
  addto currentpicture also g3
    shifted (x.k4.5d-(wdth3+10),-(12u+.5thin));
endfig;

end;

$Log: k4n1u2.mp,v $
Revision 1.1  2023/04/12 08:02:02  cvr
initial commit.


