% vim: sw=2:sts=2:ts=2
% $Id: m1n1r1.mp,v 1.1 2023/04/30 10:42:47 cvr Exp $
%
% File: 'm1n1r1.mp'
% Time-stamp: <2023-04-30 16:12:25 cvr>
% 
% Copyright (c) 2022, Rachana Institute of Typography (RIT), 
% Trivandrum 695014, India
% email: <info@rachana.org.in>
% url: www.rachana.org.in
%
% This work may be distributed and/or modified under the
% conditions of the LaTeX Project Public License, either version 1.3
% of this license or (at your option) any later version.
% The latest version of this license is in
%   http://www.latex-project.org/lppl.txt
% and version 1.3 or later is part of all distributions of LaTeX
% version 2005/12/01 or later.
%
% This work has the LPPL maintenance status “maintained”.
% 
% The Current Maintainer of this work is RIT Team.
%
% $Header: /cvsroot/ml-font/m1n1r1.mp,v 1.1 2023/04/30 10:42:47 cvr Exp $
% $Date: 2023/04/30 10:42:47 $
% $Revision: 1.1 $
%
% ന്മൃ
%
input mpost-defs;
input ml-shape-lib;
input option;
input out; 

getver(1.1);

%%% മ്ന %%%

beginfig(16);
  g1:=image(gl_ma(ma)); get_coors(g1,1);
  vconj:=true; width_angle(wa_n);
  g2:=image(gl_nR); get_coors(g2,2);
  g3:=g2 xscaled .57 yscaled .57; get_coors(g3,3);
  currentpicture:=g1;
  addto currentpicture also g3
    shifted (xpart (lrcorner g1)-xpart(urcorner g3), -12u    );
endfig;

end;


$Log: m1n1r1.mp,v $
Revision 1.1  2023/04/30 10:42:47  cvr
initial commit.


