% vim: sw=2:sts=2:ts=2
% $Id: m1u1.mp,v 1.1 2023/04/08 12:54:29 cvr Exp $
%
% File: 'm1u1.mp'
% Time-stamp: <2023-04-08 10:01:46 cvr>
% 
% Copyright (c) 2022, Rachana Institute of Typography (RIT), 
% Trivandrum 695014, India
% email: <info@rachana.org.in>
% url: www.rachana.org.in
%
% This work may be distributed and/or modified under the
% conditions of the LaTeX Project Public License, either version 1.3
% of this license or (at your option) any later version.
% The latest version of this license is in
%   http://www.latex-project.org/lppl.txt
% and version 1.3 or later is part of all distributions of LaTeX
% version 2005/12/01 or later.
%
% This work has the LPPL maintenance status “maintained”.
% 
% The Current Maintainer of this work is RIT Team.
%
% $Header $
% $Date: 2023/04/08 12:54:29 $
% $Revision: 1.1 $
%

input mpost-defs;
input ml-shape-lib;
input option;
input out; 

input ml-glyphs-lib;

getver(1.5);

%%% മു %%%

beginfig(16);
  outln:=true;
  gl_mu(ma);
endfig;

end;

$Log: m1u1.mp,v $
Revision 1.1  2023/04/08 12:54:29  cvr
initial commit.


