% vim: sw=2:sts=2:ts=2
% $Id: ml_l.mp,v 1.4 2023/02/17 05:42:59 cvr Exp $
%
% File: 'ml_l.mp'
% Time-stamp: <2023-02-17 09:45:58 cvr>
% 
% Copyright (c) 2022, Rachana Institute of Typography (RIT), 
% Trivandrum 695014, India
% email: <info@rachana.org.in>
% url: www.rachana.org.in
%
% This work may be distributed and/or modified under the
% conditions of the LaTeX Project Public License, either version 1.3
% of this license or (at your option) any later version.
% The latest version of this license is in
%   http://www.latex-project.org/lppl.txt
% and version 1.3 or later is part of all distributions of LaTeX
% version 2005/12/01 or later.
%
% This work has the LPPL maintenance status “maintained”.
% 
% The Current Maintainer of this work is RIT Team.
%
% $Header: /cvsroot/ml-font/ml_l.mp,v 1.4 2023/02/17 05:42:59 cvr Exp $
% $Date: 2023/02/17 05:42:59 $
% $Revision: 1.4 $
%
input mpost-defs;
input ml-shape-lib;
input option;
input out; 

getver(1.3);

%%% ഌ %%%

beginfig(8);
  coor_c_llobe_eye (1) (0,0);
  pstroke_c_llobe_eye (1) ;
  picture pic[];
  pic1:=currentpicture;
  z2=(.5[llcorner pic1,lrcorner pic1]);
  z3=(.5[ulcorner pic1,urcorner pic1]);
  pic2:=pic1 reflectedabout (z2,z3);
  currentpicture:=  pic1 ;
  if (wa=1): hcorr=.625wd1kf; else: hcorr=.5wd1kf; fi
  addto currentpicture also pic2 shifted (x1kf.r-hcorr,0);
endfig;

end;
