% vim: sw=2:sts=2:ts=2
% $Id: ml_oo.mp,v 1.2 2022/10/19 07:34:20 cvr Exp $
%
% File: 'mm_oo.mp'
% Time-stamp: <2022-10-19 12:58:04 cvr>
% 
% Copyright (c) 2022, Rachana Institute of Typography (RIT), 
% Trivandrum 695014, India
% email: <info@rachana.org.in>
% url: www.rachana.org.in
%
% This work may be distributed and/or modified under the
% conditions of the LaTeX Project Public License, either version 1.3
% of this license or (at your option) any later version.
% The latest version of this license is in
%   http://www.latex-project.org/lppl.txt
% and version 1.3 or later is part of all distributions of LaTeX
% version 2005/12/01 or later.
%
% This work has the LPPL maintenance status “maintained”.
% 
% The Current Maintainer of this work is RIT Team.
%
% $Header: /cvsroot/ml-font/ml_oo.mp,v 1.2 2022/10/19 07:34:20 cvr Exp $
% $Date: 2022/10/19 07:34:20 $
% $Revision: 1.2 $
%
input mpost-defs;
input ml-shape-lib;
input option;
input out; 

getver(1.2);

%%% ഓ %%%

beginfig(13);
  DocGrid(37u,20u);
  if sans:
    pickup pencircle scaled pscale;
    start:=.22;
    coor_c_o (1) (0,0);
    draw_c_o_var (1);
    coor_g_aa (3) (x1gd+4u,0);
    draw_g_aa_var (3);
  else:
    coor_ps_c_o (1) (0,0);
    pstroke_c_o_var (1);
    coor_ps_g_aa (3) (x1gd+4u,0);
    pstroke_g_aa_var (3);
  fi
endfig;

end;
