% vim: sw=2:sts=2:ts=2
% $Id: ml_uu.mp,v 1.4 2023/02/15 09:20:44 cvr Exp $
%
% File: 'ml_uu.mp'
% Time-stamp: <2023-02-15 14:49:35 cvr>
% 
% Copyright (c) 2022, Rachana Institute of Typography (RIT), 
% Trivandrum 695014, India
% email: <info@rachana.org.in>
% url: www.rachana.org.in
%
% This work may be distributed and/or modified under the
% conditions of the LaTeX Project Public License, either version 1.3
% of this license or (at your option) any later version.
% The latest version of this license is in
%   http://www.latex-project.org/lppl.txt
% and version 1.3 or later is part of all distributions of LaTeX
% version 2005/12/01 or later.
%
% This work has the LPPL maintenance status “maintained”.
% 
% The Current Maintainer of this work is RIT Team.
%
% $Header: /cvsroot/ml-font/ml_uu.mp,v 1.4 2023/02/15 09:20:44 cvr Exp $
% $Date: 2023/02/15 09:20:44 $
% $Revision: 1.4 $
%
input mpost-defs;
input ml-shape-lib
input option;
input out; 

getver(1.4);

%%% ഊ %%%

beginfig(6);
  coor_ml_u; pstroke_ml_u ;
  coor_g_vs_au (14) (x7+5u,0);
  pstroke_g_vs_au (14);     
endfig;

end;
