% vim: sw=2:sts=2:ts=2
% $Id: n1n1.mp,v 1.2 2023/03/09 22:36:41 cvr Exp $
%
% File: 'n1n1.mp'
% Time-stamp: <2023-02-14 14:12:38 cvr>
% 
% Copyright (c) 2022, Rachana Institute of Typography (RIT), 
% Trivandrum 695014, India
% email: <info@rachana.org.in>
% url: www.rachana.org.in
%
% This work may be distributed and/or modified under the
% conditions of the LaTeX Project Public License, either version 1.3
% of this license or (at your option) any later version.
% The latest version of this license is in
%   http://www.latex-project.org/lppl.txt
% and version 1.3 or later is part of all distributions of LaTeX
% version 2005/12/01 or later.
%
% This work has the LPPL maintenance status “maintained”.
% 
% The Current Maintainer of this work is RIT Team.
%
% $Header: /cvsroot/ml-font/n1n1.mp,v 1.2 2023/03/09 22:36:41 cvr Exp $
% $Date: 2023/03/09 22:36:41 $
% $Revision: 1.2 $
%
input mpost-defs;
input ml-shape-lib;
input option;
input out;

getver(1.2);

% ന്ന

beginfig(34);
  coor_c_llobe (1) (0,0); 
  pstroke_c_llobe (1); 

  coor_c_mlobe (2) (x1f.r-.5wd2b,0); 
  pstroke_c_mlobe (2); 

  coor_c_rlobe (3) (x2d.r-.5wd3b,0); 
  pstroke_c_rlobe (3); 
endfig;

end;

$Log: n1n1.mp,v $
Revision 1.2  2023/03/09 22:36:41  cvr
n1n1: revised per a/w.



