% vim: sw=2:sts=2:ts=2
% $Id: n1rhu2.mp,v 1.1 2023/04/23 07:31:48 cvr Exp $
%
% File: 'n1rhu2.mp'
% Time-stamp: <2023-04-23 12:55:49 cvr>
%
% Copyright (c) 2022, 2023, Rachana Institute of Typography (RIT), 
% Trivandrum 695014, India
% email: <info@rachana.org.in>
% url: www.rachana.org.in
%
% This work may be distributed and/or modified under the
% conditions of the LaTeX Project Public License, either version 1.3
% of this license or (at your option) any later version.
% The latest version of this license is in
%   http://www.latex-project.org/lppl.txt
% and version 1.3 or later is part of all distributions of LaTeX
% version 2005/12/01 or later.
%
% This work has the LPPL maintenance status “maintained”.
% 
% The Current Maintainer of this work is RIT Team.
%
% $Header: /cvsroot/ml-font/n1rhu2.mp,v 1.1 2023/04/23 07:31:48 cvr Exp $
% $Date: 2023/04/23 07:31:48 $
% $Revision: 1.1 $
%

input mpost-defs;
input ml-shape-lib;
input ml-glyphs-lib;
input option;
input out; 


%%% ന്റൂ %%%

beginfig(00);
  g1:=image(gl_n_cil); get_coors(g1)(1);
  vconj:=true; width_angle(wa_n);
  g2:=image(gl_Ruu(r)); get_coors(g2,2);
  g3:=g2 xscaled .6 yscaled .6; get_coors(g3,3);
%
  % v-shift calculated as height of g1 + height of g3 + .5 width of
  % n1.3f + a fixed value for the gap.
  currentpicture:=g1;
  addto currentpicture also g3
    shifted (xpart(urcorner g1)-xpart(urcorner g3),
      -(ypart(llcorner g1)+ypart(urcorner g3)
	+.5wd.n1.3f+20)); 
endfig;

end;


$Log: n1rhu2.mp,v $
Revision 1.1  2023/04/23 07:31:48  cvr
initial commit.





