% vim: sw=2:sts=2:ts=2
% $Id: n1th1.mp,v 1.2 2023/03/09 23:19:51 cvr Exp $
%
% File: 'n1th1.mp'
% Time-stamp: <2023-03-10 04:45:20 cvr>
% 
% Copyright (c) 2022, Rachana Institute of Typography (RIT), 
% Trivandrum 695014, India
% email: <info@rachana.org.in>
% url: www.rachana.org.in
%
% This work may be distributed and/or modified under the
% conditions of the LaTeX Project Public License, either version 1.3
% of this license or (at your option) any later version.
% The latest version of this license is in
%   http://www.latex-project.org/lppl.txt
% and version 1.3 or later is part of all distributions of LaTeX
% version 2005/12/01 or later.
%
% This work has the LPPL maintenance status “maintained”.
% 
% The Current Maintainer of this work is RIT Team.
%
% $Header: /cvsroot/ml-font/n1th1.mp,v 1.2 2023/03/09 23:19:51 cvr Exp $
% $Date: 2023/03/09 23:19:51 $
% $Revision: 1.2 $
%
input mpost-defs;
input ml-shape-lib;
input option;
input out;

getver(1.2);

% ന്ത 

beginfig(34);
  % coor of left lobe
  coor_c_llobe (1) (0,0);
  % stroke the path left lobe
  pstroke_c_llobe (1); 

  % coors of  ത part
  coor_c_tha_second (2) (x1d.r-.5wd2b,0);
  % stroke the path
  pstroke_c_tha_second (2);
endfig;

end;

$Log: n1th1.mp,v $
Revision 1.2  2023/03/09 23:19:51  cvr
n1th1: revised per w/a.











