% vim: sw=2:sts=2:ts=2
% $Id: ng.mp,v 1.7 2023/04/12 08:01:44 cvr Exp $
%
% File: 'ml_k2.mp'
% Time-stamp: <2023-02-17 15:45:53 cvr>
% 
% Copyright (c) 2022, Rachana Institute of Typography (RIT), 
% Trivandrum 695014, India
% email: <info@rachana.org.in>
% url: www.rachana.org.in
%
% This work may be distributed and/or modified under the
% conditions of the LaTeX Project Public License, either version 1.3
% of this license or (at your option) any later version.
% The latest version of this license is in
%   http://www.latex-project.org/lppl.txt
% and version 1.3 or later is part of all distributions of LaTeX
% version 2005/12/01 or later.
%
% This work has the LPPL maintenance status “maintained”.
% 
% The Current Maintainer of this work is RIT Team.
%
% $Header: /cvsroot/ml-font/ng.mp,v 1.7 2023/04/12 08:01:44 cvr Exp $
% $Date: 2023/04/12 08:01:44 $
% $Revision: 1.7 $
%
input mpost-defs;
input ml-shape-lib;
input ml-glyphs-lib;
input option;
input out; 

getver(1.4);

%%% ങ %%%

beginfig(16);
  gl_nga (NG);
endfig;

end;
