% vim: sw=2:sts=2:ts=2
% $Id: ngu1.mp,v 1.1 2023/04/12 08:02:09 cvr Exp $
%
% File: 'ngu1.mp'
% Time-stamp: <2023-04-12 11:56:57 cvr>
% 
% Copyright (c) 2022, Rachana Institute of Typography (RIT), 
% Trivandrum 695014, India
% email: <info@rachana.org.in>
% url: www.rachana.org.in
%
% This work may be distributed and/or modified under the
% conditions of the LaTeX Project Public License, either version 1.3
% of this license or (at your option) any later version.
% The latest version of this license is in
%   http://www.latex-project.org/lppl.txt
% and version 1.3 or later is part of all distributions of LaTeX
% version 2005/12/01 or later.
%
% This work has the LPPL maintenance status “maintained”.
% 
% The Current Maintainer of this work is RIT Team.
%
% $Header: /cvsroot/ml-font/ngu1.mp,v 1.1 2023/04/12 08:02:09 cvr Exp $
% $Date: 2023/04/12 08:02:09 $
% $Revision: 1.1 $
%
input mpost-defs;
input ml-shape-lib;
input ml-glyphs-lib;
input option;
input out; 

getver(1.4);

%%% ങു %%%

beginfig(16);
  outln:=true;
  gl_nga (NG);
  no_reverse;
  make_round_u (21) (x.NG0.3i+20+(x21c-x21b),y.NG0.3i.r-.75wd21b);
endfig;

end;
