% vim: sw=2:sts=2:ts=2
% $Id: nhu1.mp,v 1.3 2023/04/06 11:07:48 cvr Exp $
%
% File: 'nhu1.mp'
% Time-stamp: <2023-04-06 13:01:03 cvr>
% 
% Copyright (c) 2022, Rachana Institute of Typography (RIT), 
% Trivandrum 695014, India
% email: <info@rachana.org.in>
% url: www.rachana.org.in
%
% This work may be distributed and/or modified under the
% conditions of the LaTeX Project Public License, either version 1.3
% of this license or (at your option) any later version.
% The latest version of this license is in
%   http://www.latex-project.org/lppl.txt
% and version 1.3 or later is part of all distributions of LaTeX
% version 2005/12/01 or later.
%
% This work has the LPPL maintenance status “maintained”.
% 
% The Current Maintainer of this work is RIT Team.
%
% $Header: /cvsroot/ml-font/nhu1.mp,v 1.3 2023/04/06 11:07:48 cvr Exp $
% $Date: 2023/04/06 11:07:48 $
% $Revision: 1.3 $
%

input mpost-defs;
input ml-shape-lib;
input ml-glyphs-lib;
input option;
input out;

getver(1.2);

% ണു nhu1

beginfig(50);
  gl_Nu(nh);
endfig;

end;

$Log: nhu1.mp,v $
Revision 1.3  2023/04/06 11:07:48  cvr
revised, added appropriate glyph function.

Revision 1.2  2023/03/01 10:01:10  cvr
nhu1: revised as per w/a scheme.

