% vim: sw=2:sts=2:ts=2
% $Id: p2rhrh.mp,v 1.1 2023/04/26 10:11:50 cvr Exp $
%
% File: 'p2rhrh.mp'
% Time-stamp: <2023-04-26 15:41:00 cvr>
%
% Copyright (c) 2022, 2023, Rachana Institute of Typography (RIT), 
% Trivandrum 695014, India
% email: <info@rachana.org.in>
% url: www.rachana.org.in
%
% This work may be distributed and/or modified under the
% conditions of the LaTeX Project Public License, either version 1.3
% of this license or (at your option) any later version.
% The latest version of this license is in
%   http://www.latex-project.org/lppl.txt
% and version 1.3 or later is part of all distributions of LaTeX
% version 2005/12/01 or later.
%
% This work has the LPPL maintenance status “maintained”.
% 
% The Current Maintainer of this work is RIT Team.
%
% $Header: /cvsroot/ml-font/p2rhrh.mp,v 1.1 2023/04/26 10:11:50 cvr Exp $
% $Date: 2023/04/26 10:11:50 $
% $Revision: 1.1 $
%

input mpost-defs;
input ml-shape-lib;
input ml-glyphs-lib;
input option;
input out; 


%%% ഫ്ററ %%%

beginfig(00);
  g1:=image(gl_fa); 
  vconj:=true; width_angle(wa_n);
  g2:=image(gl_Ra(r1)); 
  g3:=g2 xscaled .6 yscaled .6;
  addto g3 also g2 xscaled .6 yscaled .6 shifted (xpart (lrcorner g3)+2u,0);
  currentpicture:=g1;
   addto currentpicture also g3
    shifted (xpart (lrcorner g1)-xpart(urcorner g3),-(12u+15));
endfig;

end;


$Log: p2rhrh.mp,v $
Revision 1.1  2023/04/26 10:11:50  cvr
initial commit.








