% vim: sw=2:sts=2:ts=2
% $Id: p4.mp,v 1.2 2022/10/23 09:39:38 cvr Exp $
%
% File: 'p4.mp'
% Time-stamp: <2022-12-02 12:20:58 cvr>
% 
% Copyright (c) 2022, Rachana Institute of Typography (RIT), 
% Trivandrum 695014, India
% email: <info@rachana.org.in>
% url: www.rachana.org.in
%
% This work may be distributed and/or modified under the
% conditions of the LaTeX Project Public License, either version 1.3
% of this license or (at your option) any later version.
% The latest version of this license is in
%   http://www.latex-project.org/lppl.txt
% and version 1.3 or later is part of all distributions of LaTeX
% version 2005/12/01 or later.
%
% This work has the LPPL maintenance status “maintained”.
% 
% The Current Maintainer of this work is RIT Team.
%
% $Header: /cvsroot/ml-font/p4.mp,v 1.2 2022/10/23 09:39:38 cvr Exp $
% $Date: 2022/10/23 09:39:38 $
% $Revision: 1.2 $
%
input mpost-defs;
input ml-shape-lib;
input option;
input out;

getver(1.3);

%%% ഭ %%%

beginfig(39);
  coor_c_da_lt (1) (0,0);
  pstroke_c_da_lt (1) ;
  coor_c_bha_rt (2) (x1c-.2b,0);
  pstroke_c_bha_rt (2);
endfig;

end;

