% vim: sw=2:sts=2:ts=2
% $Id: s1r3u1.mp,v 1.3 2023/04/26 03:23:08 cvr Exp $
%
% File: 's1r3u1.mp'
% Time-stamp: <2023-04-26 08:52:17 cvr>
%
% Copyright (c) 2022, 2023, Rachana Institute of Typography (RIT), 
% Trivandrum 695014, India
% email: <info@rachana.org.in>
% url: www.rachana.org.in
%
% This work may be distributed and/or modified under the
% conditions of the LaTeX Project Public License, either version 1.3
% of this license or (at your option) any later version.
% The latest version of this license is in
%   http://www.latex-project.org/lppl.txt
% and version 1.3 or later is part of all distributions of LaTeX
% version 2005/12/01 or later.
%
% This work has the LPPL maintenance status “maintained”.
% 
% The Current Maintainer of this work is RIT Team.
%
% $Header: /cvsroot/ml-font/s1r3u1.mp,v 1.3 2023/04/26 03:23:08 cvr Exp $
% $Date: 2023/04/26 03:23:08 $
% $Revision: 1.3 $
%

input mpost-defs;
input ml-shape-lib;
input option;
input out; 

%%% സ്രു %%%

input ml-glyphs-lib;

beginfig(00);
  gl_sru(sru);
endfig;  

end;

$Log: s1r3u1.mp,v $
Revision 1.3  2023/04/26 03:23:08  cvr
s1r3u1: commented code removed.

Revision 1.2  2023/04/26 03:13:28  cvr
revised, added appropriate glyph function.

Revision 1.1  2023/04/05 05:49:42  cvr
initial commit.








  
