% vim: sw=2:sts=2:ts=2
% $Id: s1t1u1.mp,v 1.1 2023/04/29 10:55:20 cvr Exp $
%
% File: 's1t1u1.mp'
% Time-stamp: <2023-04-29 16:24:50 cvr>
% 
% Copyright (c) 2022, 2023 Rachana Institute of Typography (RIT), 
% Trivandrum 695014, India
% email: <info@rachana.org.in>
% url: www.rachana.org.in
%
% This work may be distributed and/or modified under the
% conditions of the LaTeX Project Public License, either version 1.3
% of this license or (at your option) any later version.
% The latest version of this license is in
%   http://www.latex-project.org/lppl.txt
% and version 1.3 or later is part of all distributions of LaTeX
% version 2005/12/01 or later.
%
% This work has the LPPL maintenance status “maintained”.
% 
% The Current Maintainer of this work is RIT Team.
%
% $Header: /cvsroot/ml-font/s1t1u1.mp,v 1.1 2023/04/29 10:55:20 cvr Exp $
% $Date: 2023/04/29 10:55:20 $
% $Revision: 1.1 $
%
input mpost-defs;
input ml-shape-lib;
input option;
input out; 

%%% സ്ടു %%%

beginfig(36);
  g1:=image(gl_sa(s)); get_coors(g1,1);
  vconj:=true; width_angle(wa_n);
  g2:=image(gl_Tu); get_coors(g2,2);
  g3:=g2 xscaled 0.6 yscaled 0.6; get_coors(g3,3);

  currentpicture:=g1;
  addto currentpicture also g3
    shifted (.85(xpart(lrcorner g1)-xpart(urcorner g3)), -(12u+20));
  
endfig;

end;

$Log: s1t1u1.mp,v $
Revision 1.1  2023/04/29 10:55:20  cvr
initial commit.


