% vim: sw=2:sts=2:ts=2
% $Id: s1th2.mp,v 1.3 2023/04/29 22:48:27 cvr Exp $
%
% File: 's1h2.mp'
% Time-stamp: <2023-04-29 17:58:34 cvr>
% 
% Copyright (c) 2022, Rachana Institute of Typography (RIT), 
% Trivandrum 695014, India
% email: <info@rachana.org.in>
% url: www.rachana.org.in
%
% This work may be distributed and/or modified under the
% conditions of the LaTeX Project Public License, either version 1.3
% of this license or (at your option) any later version.
% The latest version of this license is in
%   http://www.latex-project.org/lppl.txt
% and version 1.3 or later is part of all distributions of LaTeX
% version 2005/12/01 or later.
%
% This work has the LPPL maintenance status “maintained”.
% 
% The Current Maintainer of this work is RIT Team.
%
% $Header: /cvsroot/ml-font/s1th2.mp,v 1.3 2023/04/29 22:48:27 cvr Exp $
% $Date: 2023/04/29 22:48:27 $
% $Revision: 1.3 $
%
input mpost-defs;
input ml-shape-lib;
input option;
input out;

getver(1.2);

beginfig(33);
  gl_sthha(st);
endfig;

end;

$Log: s1th2.mp,v $
Revision 1.3  2023/04/29 22:48:27  cvr
revised, added appropriate glyph function.

Revision 1.2  2023/03/09 07:20:44  cvr
s1th2: revised per w/a.

