% vim: sw=2:sts=2:ts=2
% $Id: th1r1.mp,v 1.3 2023/04/25 06:07:23 cvr Exp $
%
% File: 'th1r1.mp'
% Time-stamp: <2023-04-25 11:36:45 cvr>
% 
% Copyright (c) 2022, Rachana Institute of Typography (RIT), 
% Trivandrum 695014, India
% email: <info@rachana.org.in>
% url: www.rachana.org.in
%
% This work may be distributed and/or modified under the
% conditions of the LaTeX Project Public License, either version 1.3
% of this license or (at your option) any later version.
% The latest version of this license is in
%   http://www.latex-project.org/lppl.txt
% and version 1.3 or later is part of all distributions of LaTeX
% version 2005/12/01 or later.
%
% This work has the LPPL maintenance status “maintained”.
% 
% The Current Maintainer of this work is RIT Team.
%
% $Header: /cvsroot/ml-font/th1r1.mp,v 1.3 2023/04/25 06:07:23 cvr Exp $
% $Date: 2023/04/25 06:07:23 $
% $Revision: 1.3 $
%
% തൃ
%
input mpost-defs;
input ml-shape-lib;
input option;
input out; 


beginfig(32);
  gl_thR(t);
endfig;

end;


$Log: th1r1.mp,v $
Revision 1.3  2023/04/25 06:07:23  cvr
revised, added appropriate glyph function.

Revision 1.2  2023/02/28 03:49:56  cvr
th1r1: revised to meet the new w/a specs.

  
