% vim: sw=2:sts=2:ts=2
% $Id: th1s1th2u2.mp,v 1.1 2023/04/22 11:51:05 cvr Exp $
%
% File: 'th1s1th2u2.mp'
% Time-stamp: <2023-04-22 11:15:32 cvr>
% Copyright (c) 2022, Rachana Institute of Typography (RIT), 
% Trivandrum 695014, India
% email: <info@rachana.org.in>
% url: www.rachana.org.in
%
% This work may be distributed and/or modified under the
% conditions of the LaTeX Project Public License, either version 1.3
% of this license or (at your option) any later version.
% The latest version of this license is in
%   http://www.latex-project.org/lppl.txt
% and version 1.3 or later is part of all distributions of LaTeX
% version 2005/12/01 or later.
%
% This work has the LPPL maintenance status “maintained”.
% 
% The Current Maintainer of this work is RIT Team.
% $Header: /cvsroot/ml-font/th1s1th2u2.mp,v 1.1 2023/04/22 11:51:05 cvr Exp $
% $Date: 2023/04/22 11:51:05 $
% $Revision: 1.1 $
%
%%% ത്സ്ഥൂ %%%
%
input mpost-defs;
input ml-shape-lib;
input option;
input out; 

getver(1.2);

beginfig(34);
  gl_thsthhuu;
endfig;

end;


$Log: th1s1th2u2.mp,v $
Revision 1.1  2023/04/22 11:51:05  cvr
initial commit.







