% vim: sw=2:sts=2:ts=2
% $Id: v1r1.mp,v 1.2 2023/02/28 05:12:36 cvr Exp $
%
% File: 'v1r1.mp'
% Time-stamp: <2023-02-28 10:42:13 cvr>
% 
% Copyright (c) 2022, Rachana Institute of Typography (RIT), 
% Trivandrum 695014, India
% email: <info@rachana.org.in>
% url: www.rachana.org.in
%
% This work may be distributed and/or modified under the
% conditions of the LaTeX Project Public License, either version 1.3
% of this license or (at your option) any later version.
% The latest version of this license is in
%   http://www.latex-project.org/lppl.txt
% and version 1.3 or later is part of all distributions of LaTeX
% version 2005/12/01 or later.
%
% This work has the LPPL maintenance status “maintained”.
% 
% The Current Maintainer of this work is RIT Team.
%
% $Header: /cvsroot/ml-font/v1r1.mp,v 1.2 2023/02/28 05:12:36 cvr Exp $
% $Date: 2023/02/28 05:12:36 $
% $Revision: 1.2 $
%
input mpost-defs;
input ml-shape-lib;
input option;
input out; 

getver(1.2);

%%% വ %%%  

beginfig(43);
  coor_c_ra (1)(0,0);
  if (wa=1) or (wa=3): wd1f:=.5w_s;  fi
  if (wa=4): oc1f(.15); else: oc1f(.5); fi
  ang1f:=-30;
  pstroke_c_ra (1);
  pstroke_stem (3) (x1f.r+wd1f,0,1.3b,w_w);
  pstroke_stem (4) (x3d-thick,0,thick,1h);
  pstroke_edge ((x1f.l,y3a),z1f.l,z3b,z3a);
  coor_c_prkar (5) (x3d-(x5b-x5a+.5thick),-1u);
  start:=1; wd5b=thick;
  pstroke_c_prkar (5);
  pstroke_stem (6) (x5b.l,y5b,thick,2u);
endfig;

end;

$Log: v1r1.mp,v $
Revision 1.2  2023/02/28 05:12:36  cvr
v1r1: newly created; Log added.

