% vim: sw=2:sts=2:ts=2
% $Id: y1p1.mp,v 1.1 2023/04/28 02:45:17 cvr Exp $
%
% File: 'y1p1.mp'
% Time-stamp: <2023-04-28 08:14:52 cvr>
% 
% Copyright (c) 2022, Rachana Institute of Typography (RIT), 
% Trivandrum 695014, India
% email: <info@rachana.org.in>
% url: www.rachana.org.in
%
% This work may be distributed and/or modified under the
% conditions of the LaTeX Project Public License, either version 1.3
% of this license or (at your option) any later version.
% The latest version of this license is in
%   http://www.latex-project.org/lppl.txt
% and version 1.3 or later is part of all distributions of LaTeX
% version 2005/12/01 or later.
%
% This work has the LPPL maintenance status “maintained”.
% 
% The Current Maintainer of this work is RIT Team.
%
% $Header: /cvsroot/ml-font/y1p1.mp,v 1.1 2023/04/28 02:45:17 cvr Exp $
% $Date: 2023/04/28 02:45:17 $
% $Revision: 1.1 $
%
input mpost-defs;
input ml-shape-lib;
input option;
input out; 

beginfig(43);
  g1:=image(gl_ya(ya)); get_coors(g1,1);
  vconj:=true; width_angle(wa_n);
  g2:=image(gl_pa(p)); get_coors(g2,2);
  g3:=g2 xscaled 0.65 yscaled 0.6; get_coors(g3,3);

  currentpicture:=g1;
  addto currentpicture also g3
      shifted (.6(xpart(lrcorner g1)-xpart(urcorner g3)), -12u-20);
endfig;

end;

$Log: y1p1.mp,v $
Revision 1.1  2023/04/28 02:45:17  cvr
initial commit.

