% vim: sw=2:sts=2:ts=2
% $Id: zhu1.mp,v 1.2 2023/04/30 10:03:48 rajeesh Exp $
%
% File: 'zhu1.mp
% Time-stamp: <2023-04-30 15:28:54 rajeesh>
% 
% Copyright (c) 2022, Rachana Institute of Typography (RIT), 
% Trivandrum 695014, India
% email: <info@rachana.org.in>
% url: www.rachana.org.in
%
% This work may be distributed and/or modified under the
% conditions of the LaTeX Project Public License, either version 1.3
% of this license or (at your option) any later version.
% The latest version of this license is in
%   http://www.latex-project.org/lppl.txt
% and version 1.3 or later is part of all distributions of LaTeX
% version 2005/12/01 or later.
%
% This work has the LPPL maintenance status “maintained”.
% 
% The Current Maintainer of this work is RIT Team.
%
% $Header: /cvsroot/ml-font/zhu1.mp,v 1.2 2023/04/30 10:03:48 rajeesh Exp $
% $Date: 2023/04/30 10:03:48 $
% $Revision: 1.2 $
%
input mpost-defs;
input ml-shape-lib;
input option;
input out; 

getver(1.1);

%%% ഴു %%% 

beginfig(46);
  outln:=true;
  no_reverse;
  gl_zha;
  make_round_u (21) (x.zh.j+.5wd21c,y.zh.k-.05wd21b);
endfig;

end;

$Log: zhu1.mp,v $
Revision 1.1  2023/04/30 10:16:46  rajeesh
initial commit.
